[{
  "name": "B: Lern- und Präsentationsmodus",
  "description": "Dient in der Demo-Kartei für die Beschreibung der Navigation per Tastatur und Inhaltsverzeichnis.",
  "date": "2018-07-08T06:28:46.220Z",
  "dateUpdated": "2019-04-14T07:26:49.834Z",
  "editors": [],
  "owner": "jCZ6oHcbZhJaKKodN",
  "visible": false,
  "ratings": true,
  "kind": "personal",
  "price": 0,
  "reviewed": false,
  "reviewer": "undefined",
  "request": false,
  "raterCount": 0,
  "quantity": 1,
  "license": [],
  "userDeleted": false,
  "learningActive": false,
  "maxCards": 0,
  "daysBeforeReset": 0,
  "learningStart": "1970-01-01T00:00:00.000Z",
  "learningEnd": "1970-01-01T00:00:00.000Z",
  "learningInterval": [],
  "wordcloud": false,
  "shuffled": false,
  "cardType": 8,
  "difficulty": 1,
  "originalAuthorName": {
    "title": "Dr.",
    "birthname": "Quibeldey-Cirkel",
    "givenname": "Klaus"
  },
  "noDifficulty": true,
  "registrationPeriod": "1970-01-01T00:00:00.000Z",
  "workload": {
    "bonus": {
      "count": 0
    },
    "normal": {
      "count": 0
    }
  },
  "rating": 0,
  "sortType": 0
}, {
  "subject": "Ablenkungsfrei",
  "front": "**Die Karte als Folie:**\n🍅cards wurde für die Vollansicht auf dem Laptop und für den Beamer entwickelt.\nIn der Präsentation werden die Karten immer in der Vollansicht dargestellt. Dein Publikum sieht dann nur noch die einzelne Karte ohne Browserleiste oder andere offene Anwendungen auf deinem Desktop.\nDas ist für ein ablenkungsfreies Betrachten sehr wichtig.\nMit dem Karteityp „Vortrag‟ kannst du sogar vollständige Folien-Präsentationen halten.\nDie <a href=\"/learning#Pomodoro\" target=\"_blank\"><strong>Pomodoro-Uhr</strong></a> dient dir dann für das Timing deines Vortrags.\nDurch die Präsentation navigierst du <strong>ohne Maus</strong> einfach mit der <kbd>Leertaste</kbd>: \n\n![](/img/help/de/presentation_key.png width=60%)\n\nDie Seiten einer Karte erreichst du mit der <kbd>Tabtaste</kbd>.\nLange Texte scrollst du mit den <kbd>Pfeiltasten</kbd>.\nZu einer beliebigen Karte wechselst du im <strong>Inhaltsverzeichnis</strong>, siehe den linken Randbutton. \nUnd mit <kbd>esc</kbd> (Escape) oder dem orangefarbenen Randbutton rechts verlässt du den Präsentationsmodus.\n\n<strong>Lightbox:</strong>\nWenn du Bilder auf deiner Karte in einer Lightbox herausstellen willst,\nklick einfach auf das Bild. Zum Testen klick mal auf das Bild oben.\nSpeichere die Bilder möglichst großformatig,\ndamit sie in voller Beamer-Höhe vom Publikum gesehen werden können.\n\n<strong>Skalierung:</strong>\nMit <kbd>Strg</kbd> (oder auf dem Mac mit <kbd>command</kbd> ) und <kbd>+</kbd> steuerst du die Kartengröße, mit dem rechten Button (Lupe) die Schriftgröße. So kann dein Publikum auch in der hintersten Reihe alles gut sehen.\n\n\n!!!TIP Probier die Tastensteuerung gleich mal aus: Klick auf die <kbd>Leertaste</kbd>!\n   Es folgen Beispiele für die verschiedenen Kartentypen auf 🍅cards …\n",
  "centerTextElement": [
    false,
    false,
    false,
    false,
    false,
    false
  ],
  "date": "2018-07-08T06:03:49.254Z",
  "learningGoalLevel": 0,
  "backgroundStyle": 1,
  "learningIndex": "0",
  "learningUnit": "0",
  "dateUpdated": "2019-04-14T07:26:49.826Z",
  "originalAuthorName": {
    "title": "Dr.",
    "birthname": "Quibeldey-Cirkel",
    "givenname": "Klaus"
  },
  "alignType": [
    1,
    1,
    1,
    1,
    1,
    1
  ],
  "owner": "jCZ6oHcbZhJaKKodN"
}]